module gitlab.com/gpsv2

go 1.12

require (
	github.com/golang/snappy v0.0.1 // indirect
	github.com/google/go-cmp v0.3.0 // indirect
	github.com/jinzhu/gorm v1.9.9
	github.com/kr/pretty v0.1.0 // indirect
	github.com/streadway/amqp v0.0.0-20190404075320-75d898a42a94
	github.com/stretchr/testify v1.3.0 // indirect
	github.com/tidwall/pretty v0.0.0-20190325153808-1166b9ac2b65 // indirect
	github.com/xdg/scram v0.0.0-20180814205039-7eeb5667e42c // indirect
	github.com/xdg/stringprep v1.0.0 // indirect
	go.mongodb.org/mongo-driver v1.0.2
	golang.org/x/crypto v0.0.0-20190513172903-22d7a77e9e5f // indirect
	golang.org/x/sync v0.0.0-20190423024810-112230192c58 // indirect
	golang.org/x/text v0.3.2 // indirect
	gopkg.in/yaml.v2 v2.2.2
)
